<?xml version="1.0" standalone="no"?>
<!DOCTYPE svg PUBLIC "-//W3C//DTD SVG 1.1//EN" "http://www.w3.org/Graphics/SVG/1.1/DTD/svg11.dtd" >
<svg xmlns="http://www.w3.org/2000/svg">
<metadata>Generated by IcoMoon</metadata>
<defs>
<font id="gymse" horiz-adv-x="1024">
<font-face units-per-em="1024" ascent="960" descent="-64" />
<missing-glyph horiz-adv-x="1024" />
<glyph unicode="&#x20;" d="" horiz-adv-x="512" />
<glyph unicode="&#xe600;" d="M252.438 960h1.336c63.889-57.433 133.12-108.633 196.563-166.957-66.115-53.203-133.343-105.294-198.122-160.278-3.339 33.614-6.901 67.228-10.463 101.064-37.843-0.445-75.687-0.668-113.308-0.89-2.449-189.44-2.226-378.88-0.223-568.32 41.405-1.336 82.588-2.449 123.993-3.784 0.223-40.737 0.445-81.697 0.89-122.435-88.598 1.781-261.788-38.734-253.106 101.064v617.071c-9.795 135.346 154.936 100.174 241.308 101.955 4.007 33.837 7.569 67.673 11.13 101.51zM592.807 857.6c88.598-1.781 262.010 38.511 253.106-101.287v-616.626c10.017-135.569-154.713-100.397-241.308-102.177-3.784-33.837-7.569-67.673-11.13-101.51h-1.336c-64.111 57.433-132.897 109.078-196.786 166.734 66.337 53.426 133.565 105.517 198.344 160.501 3.339-33.614 6.901-67.228 10.463-100.842 45.19 0.223 90.379 0.445 135.791 0.89 2.003 189.44 2.003 379.103 0 568.543-48.751 1.113-97.503 1.781-146.254 2.894-0.223 40.96-0.445 81.92-0.89 122.88z" horiz-adv-x="846" />
<glyph unicode="&#xe601;" d="M432.287 948.35c-57.638-16.556-100.56-42.309-147.162-89.523-69.289-69.289-100.56-149.614-101.174-258.146 0-30.659-3.679-58.865-9.198-71.741-22.074-52.733-3.066-139.19 42.309-193.763 16.556-19.622 34.338-51.507 43.535-76.647 8.584-23.914 22.687-53.959 31.272-66.223 11.65-18.395 14.716-30.659 14.716-63.157v-40.469l-25.753-11.65c-14.716-6.132-64.996-19.622-112.211-30.046-80.939-18.395-132.446-37.404-158.812-58.251-9.811-7.971-11.037-12.263-4.905-25.14 12.877-27.593 32.498-31.272 70.515-12.263 19.008 8.584 76.034 26.98 128.153 39.243 51.507 12.877 104.24 28.206 117.116 34.338 26.98 12.877 46.601 35.564 51.507 59.478 4.292 20.848 11.037 21.461 38.63 2.453 32.498-21.461 64.383-29.432 115.89-29.432 49.054 0.613 84.618 9.811 126.927 34.951l25.753 15.329 3.679-20.848c4.905-24.527 28.819-50.893 58.865-63.77 11.65-4.905 61.931-19.622 111.598-32.498s103.013-28.819 118.956-35.564c15.329-7.358 31.885-12.877 36.177-12.877 7.971 0 39.856 33.725 39.856 42.309 0 2.453-13.49 12.263-29.432 20.848-28.206 15.329-73.581 28.819-166.783 50.28-25.14 5.519-58.865 15.943-74.807 22.687l-29.432 12.263v38.63c0 33.725 3.066 42.922 27.593 86.457 15.329 26.366 30.046 57.638 33.111 68.675s14.103 30.046 24.527 41.696c27.593 30.659 47.828 74.807 56.412 119.569 6.132 35.564 5.519 42.309-6.132 71.741-9.811 24.527-12.877 45.988-12.877 86.457 0 63.157-15.943 133.672-41.083 180.273-41.696 77.26-127.54 144.096-213.998 166.17-49.667 12.877-136.125 12.263-183.339-1.84zM589.26 893.164c101.787-17.169 183.952-101.787 211.545-218.903 7.358-31.272 9.198-58.251 6.745-101.174-3.679-56.412-3.066-59.478 9.198-62.544 12.263-3.679 12.877-6.745 9.198-44.762-4.905-49.054-23.301-90.75-47.214-104.853-11.65-6.745-19.008-17.169-21.461-30.046-6.745-38.017-53.346-120.795-85.231-152.68-46.601-46.601-80.939-60.704-144.709-61.317-42.922 0-57.638 2.453-82.778 15.329-58.865 28.819-110.984 95.042-137.351 176.594-8.584 26.366-18.395 43.535-31.885 54.572-25.14 21.461-39.856 55.799-45.375 104.853-4.292 36.177-3.679 39.243 8.584 42.309s12.877 7.358 12.877 74.807c0 81.552 9.198 125.701 38.017 179.66 51.507 96.881 172.915 149.001 299.842 128.153z" horiz-adv-x="1049" />
<glyph unicode="&#xe602;" d="M458.445 960h52.634c105.37-9.933 203.264-77.21 247.296-173.875 43.622-91.648 36.454-204.8-18.125-290.304-54.17-87.552-155.955-143.155-258.97-140.595-90.112 0.819-177.971 45.773-232.653 117.146-39.322 51.302-62.669 115.302-62.976 180.122-2.355 95.232 43.827 190.566 120.627 247.091 43.827 33.997 97.587 53.043 152.166 60.416zM442.778 874.291c-105.779-19.763-185.754-125.338-176.128-232.55 6.144-109.466 104.346-205.414 214.733-204.698 95.334-4.403 187.597 63.283 214.323 154.419 22.016 67.072 8.192 144.384-34.816 200.192-49.459 65.843-137.216 99.942-218.112 82.637zM279.757 271.872c98.406 36.864 206.643 44.954 310.067 27.853 152.166-26.317 291.84-115.098 382.976-239.309v-11.981c-8.806-50.483-43.213-99.533-94.925-112.435h-782.643c-51.302 12.288-84.787 60.518-95.232 109.875v15.053c70.554 95.13 168.858 169.37 279.757 210.944zM113.766 35.942c248.422-1.638 496.845-1.638 745.267 0-86.528 100.352-213.402 167.117-346.624 172.339-150.733 10.035-301.261-57.958-398.643-172.339z" horiz-adv-x="973" />
<glyph unicode="&#xe603;" d="M0 448c163.942 170.496 327.066 341.606 491.418 511.693 18.842-18.637 38.298-36.762 56.422-56.115-134.246-141.21-267.981-282.829-401.92-424.346 336.998-0.307 674.099 0 1011.2-0.102v-89.805c-336.691 0-673.485-0.102-1010.176 0 133.222-132.71 267.162-264.806 400.896-397.005-18.33-19.251-37.581-37.478-56.422-56.013-164.352 170.086-327.578 341.197-491.418 511.693v0z" horiz-adv-x="1157" />
<glyph unicode="&#xe604;" d="M609.178 903.68c18.534 19.046 37.581 37.581 56.627 56.115 164.045-170.394 327.578-341.197 491.315-511.898v-10.752l-0.102 10.65c-163.942-170.394-327.168-341.402-491.213-511.59-19.046 18.534-37.99 37.069-56.627 56.013 133.837 132.198 267.571 264.499 401.101 397.005-336.691 0.102-673.485 0.102-1010.278 0.102v89.805c337.101 0.102 674.202-0.205 1011.302 0.102-134.144 141.414-267.776 283.238-402.125 424.448z" horiz-adv-x="1157" />
<glyph unicode="&#xe605;" d="M52.622 960h110.839c4.456-4.836 13.274-14.507 17.73-19.342-19.058-49.304-83.721-8.154-118.708-33.375-46.744-36.978 14.791-121.079-41.719-148.859-5.215 4.172-15.55 12.516-20.764 16.782v128.948c6.637 26.927 26.738 46.933 52.622 55.846zM783.929 960h109.416c26.643-7.206 46.27-27.496 54.803-53.476v-129.517c-5.025-4.741-14.981-14.127-19.911-18.868-57.932 26.927 4.456 112.166-42.572 149.144-34.323 24.747-96.332-14.886-116.717 31.858 3.698 5.215 11.283 15.644 14.981 20.859zM132.741 762.785c27.876 0 55.751 0 83.721 0-0.19-66.181 0.095-132.456-0.284-198.637-27.781 0.095-55.561 0.19-83.437 0.19 0 66.086 0 132.267 0 198.447zM299.52 762.406c33.754 0.379 67.508 0.474 101.262 0.379 0.474-66.181 0-132.361 0.284-198.542-33.849 0.095-67.793 0.095-101.641-0.095 0.19 66.086 0 132.172 0.095 198.258zM454.447 762.69c21.997 0.095 43.994 0.095 65.896 0.19 0.095-66.276-0.19-132.456 0.19-198.637-21.997 0.19-43.994 0-65.896 0.095-0.284 66.086-0.095 132.172-0.19 198.353zM577.707 762.785c20.48-0.095 40.96-0.19 61.44-0.284 0.095-66.086-0.095-132.172 0.095-198.353-20.48 0.095-40.96 0.095-61.345 0.19-0.284 66.181-0.095 132.267-0.19 198.447zM731.686 762.785c27.97 0 55.846 0 83.721 0 0-66.181 0-132.361 0-198.447-27.876 0-55.656-0.095-83.437-0.19-0.379 66.181-0.095 132.456-0.284 198.637zM17.825 519.964c304.166 0.19 608.332 0.19 912.498 0 6.163-27.022 6.068-54.993 0.569-82.11-304.545-0.095-609.090-0.095-913.636 0-5.499 27.117-5.594 55.087 0.569 82.11zM132.741 353.185c27.876 0 55.751 0 83.627 0 0-73.292 0-146.679 0.095-219.97-27.97 0-55.846 0-83.721 0 0 73.292 0 146.679 0 219.97zM299.52 353.185c33.849 0 67.603 0 101.452 0 0.095-43.804 0-87.704 0.095-131.508-33.849 0.095-67.698 0.095-101.641 0 0.095 43.804 0 87.704 0.095 131.508zM454.637 353.28c21.902-0.095 43.804-0.095 65.707-0.095 0.095-43.899-0.19-87.799 0.19-131.698-21.997 0.284-43.994 0.19-65.896 0.284-0.19 43.804-0.284 87.704 0 131.508zM577.896 353.28c20.385-0.095 40.865-0.095 61.25-0.095 0.095-43.899-0.095-87.704 0.095-131.508-20.48 0-40.96 0-61.345 0.095-0.19 43.804-0.284 87.609 0 131.508zM731.781 353.185c27.876 0 55.751 0 83.627 0 0-73.292 0-146.679 0-219.97-27.876 0-55.751 0-83.721 0 0.095 73.292 0.095 146.679 0.095 219.97zM269.369 178.726c27.876 0 55.846 0 83.816 0.095-0.19-14.791-0.284-29.582-0.379-44.468-27.781 0-55.656 0-83.437 0.19 0 14.696 0 29.487 0 44.184zM397.748 178.726c53.855 0 107.71 0 161.564 0 0.095-14.696 0.19-29.393 0.19-44.184-53.95-0.284-107.899-0.19-161.849-0.095 0 14.791 0 29.582 0.095 44.279zM594.963 178.821c14.696-0.095 29.487-0.095 44.184-0.095 0-14.791 0-29.487 0-44.184-14.601-0.095-29.203-0.095-43.804-0.19-0.095 14.791-0.19 29.677-0.379 44.468zM0 118.613c5.025 4.741 15.076 14.127 20.101 18.868 57.553-27.117-4.551-111.787 42.287-148.764 35.461-24.367 99.081 16.498 118.803-32.047-4.361-5.215-12.895-15.55-17.161-20.67h-109.89c-26.264 7.396-45.606 27.496-54.139 53.096v129.517zM885.57-11.283c46.933 36.883-14.791 121.173 41.908 148.385 5.215-4.267 15.55-12.61 20.67-16.782v-128.379c-6.542-26.833-26.359-46.744-51.959-55.941h-110.080c-4.267 5.025-12.99 15.076-17.351 20.006 18.11 49.304 82.11 8.439 116.812 32.711z" horiz-adv-x="948" />
<glyph unicode="&#xe606;" d="M183.091 960h32.358c19.046-6.144 37.069-15.77 50.995-30.515 73.114-73.626 146.842-146.637 219.853-220.365 30.72-28.262 37.069-79.974 10.138-112.742-23.040-27.546-50.688-50.79-75.264-76.902 41.165-60.928 94.31-113.562 155.546-154.214 26.010 24.678 49.050 52.326 77.005 74.752 31.437 25.6 80.998 21.402 108.851-7.578 73.83-73.011 146.534-147.149 220.16-220.262 19.354-18.637 35.942-43.418 32.563-71.68 1.024-32.973-24.269-57.037-45.978-78.131-28.16-26.726-53.862-55.91-83.149-81.306-29.286-25.293-66.867-37.888-104.346-45.056h-56.422c-115.712 17.613-218.112 80.077-309.453 150.221-91.136 71.68-176.333 151.962-246.682 244.326-67.891 89.907-126.259 189.85-151.552 300.646-15.053 65.843-11.674 137.83 21.402 197.837 15.155 21.914 35.84 39.014 54.272 58.061 27.648 26.726 51.917 59.699 89.702 72.909zM127.283 801.894c-24.166-21.811-32.87-55.706-33.894-87.245-1.229-57.037 17.51-112.333 39.834-164.045 60.109-132.198 156.365-244.736 264.499-340.173 56.32-50.483 117.35-95.744 182.886-133.53 51.61-27.955 107.11-53.453 166.605-56.218 32.461-1.843 66.97 6.349 90.624 29.696 31.846 30.515 62.362 62.464 93.798 93.389-76.186 76.288-152.269 152.678-228.352 228.864-30.72-31.334-61.85-62.054-92.467-93.389-62.157-0.512-115.302 37.786-159.539 77.517-58.061 51.302-103.834 120.115-114.688 197.939 31.744 30.003 62.259 61.133 93.184 91.955-76.595 76.186-152.883 152.678-229.171 229.171-23.962-25.088-48.742-49.357-73.318-73.933z" />
<glyph unicode="&#xe607;" d="M1194.257 960v0c56.798-56.934 112.913-114.688 171.076-170.121v-0.273c-284.672-284.126-569.754-567.842-852.787-853.606h-0.273c-170.394 170.803-340.241 342.289-512.273 511.454v0.137c57.89 56.115 113.186 114.961 171.895 169.984 111.275-114.415 226.236-225.143 337.374-339.558 9.83 6.554 18.842 14.063 27.17 22.391 218.59 220.501 439.91 438.409 657.818 659.593z" horiz-adv-x="1365" />
<glyph unicode="&#xe608;" d="M78.643 960h862.003c42.598-7.168 74.854-40.858 83.354-82.534v-858.317c-7.885-40.96-38.81-73.011-79.258-83.149h-861.389c-42.803 6.963-74.752 41.062-83.354 82.637v857.702c7.27 41.267 38.605 72.909 78.643 83.661zM137.318 822.784c-12.083-12.288-7.782-31.539-9.421-47.104 0.819-221.901 0.307-443.699 0.307-665.6-0.205-16.589 1.229-38.195 20.275-43.725 28.672-5.12 58.061-2.355 87.040-2.765 204.902 0.205 409.907 0 614.81 0.102 16.486-0.819 37.786 2.458 43.418 20.992 5.018 28.57 2.253 57.856 2.56 86.835-0.102 204.902 0 409.805 0.102 614.707-0.205 15.053-1.229 33.382-15.974 41.677-30.106 7.066-61.338 3.072-91.853 3.789-201.421 0.102-402.842-0.41-604.365 0.307-15.36-1.741-34.714 2.867-46.899-9.216zM384.307 704c42.598 0 85.094 0 127.693 0 0-85.299 0-170.701 0-256 64.102 0 128.102 0 192.205 0-0.205-42.803-0.102-85.606 0.102-128.41-106.701 0.205-213.402-0.102-320.102 0.205 0.205 128 0 256.102 0.102 384.205z" />
<glyph unicode="&#xe609;" d="M365.261 960h64c125.952-11.366 245.043-83.354 310.067-192.307 32.768-52.531 50.483-112.845 59.392-173.67v-59.494c-12.8-82.944-49.869-159.437-91.136-231.629-64.717-112.435-143.36-215.962-224.87-316.621-17.715-22.63-39.526-42.906-68.198-50.278h-28.058c-29.901 5.939-52.326 27.136-70.349 50.278-80.077 98.714-157.389 200.294-221.389 310.374-42.598 73.83-81.101 151.962-94.72 236.851v54.784c9.728 94.515 49.971 186.573 117.862 253.747 65.331 67.174 155.034 106.906 247.398 117.965zM131.277 714.65c-31.539-55.296-48.128-120.832-40.141-184.422 16.179-84.787 62.464-159.539 106.803-232.243 60.928-95.232 128.819-186.061 201.421-272.691 91.443 110.080 177.357 225.485 247.706 350.413 27.238 51.814 54.374 105.677 61.85 164.557 6.246 95.027-34.714 191.795-106.701 253.952-57.856 51.2-135.578 79.36-212.787 76.186-105.472-2.048-206.541-64.102-258.15-155.75zM371.61 689.971c60.518 14.029 127.283-21.197 150.323-78.746 22.733-50.278 8.294-113.766-32.973-150.118-47.309-46.899-131.891-46.899-179.2 0-39.117 34.714-54.579 93.798-35.738 142.95 14.848 43.008 53.146 76.39 97.587 85.914zM361.165 639.386c-29.594-14.131-50.79-45.568-50.176-78.643-2.867-47.616 40.96-91.75 88.371-90.214 50.995-1.843 96.051 48.742 87.962 99.328-4.506 57.958-74.65 97.587-126.157 69.53z" horiz-adv-x="799" />
<glyph unicode="&#xe60a;" d="M89.498 960h1087.795c46.592-7.373 82.534-44.749 92.467-90.214v-840.909c-7.885-46.080-43.725-83.046-89.19-92.877h-1088.512c-46.387 7.782-82.944 44.851-92.058 90.726v841.421c8.090 45.875 44.237 82.125 89.498 91.853zM116.941 852.070c172.646-175.821 344.986-351.949 517.939-527.462 172.954 175.514 345.293 351.642 517.837 527.462-345.293 0.102-690.483 0.102-1035.776 0zM105.677 786.534c0.717-243.61 0.205-487.117 0.307-730.624 120.73 120.73 239.206 243.814 359.219 365.261-119.91 121.754-239.206 244.019-359.526 365.363zM804.557 421.171c120.013-121.446 238.49-244.531 359.219-365.261 0.102 243.507-0.41 487.014 0.307 730.624-120.422-121.242-239.616-243.61-359.526-365.363zM170.803 44.134c309.35-0.41 618.803-0.41 928.154 0-109.466 113.869-221.696 224.973-331.264 338.739-44.954-43.725-87.757-89.6-132.813-133.222-45.056 43.622-87.962 89.395-132.813 133.222-109.67-113.664-221.696-224.973-331.264-338.739z" horiz-adv-x="1270" />
<glyph unicode="&#xe60b;" d="M804.045 960h31.232c38.093-10.24 61.542-43.418 88.474-69.53 26.726-28.57 61.85-52.941 72.192-92.877 22.323-58.368 18.739-123.085 3.277-182.579-23.245-89.498-67.891-172.134-120.422-247.706-75.776-109.773-172.954-203.264-277.914-285.082-88.576-67.789-187.802-127.283-299.418-146.227h-56.832c-38.4 6.349-77.005 18.842-106.906 44.749-30.925 27.238-58.368 58.266-88.269 86.63-20.378 19.456-41.779 42.906-40.755 73.114-3.379 28.262 13.107 53.043 32.461 71.68 73.626 73.114 146.022 147.558 219.75 220.467 27.75 28.979 78.029 32.973 108.851 6.656 26.931-22.835 50.176-49.766 75.469-74.445 61.542 40.755 114.995 93.594 155.853 155.136-24.883 25.498-51.712 49.050-74.957 76.083-27.136 32.973-21.197 85.709 10.445 113.766 71.578 71.987 143.462 143.565 214.835 215.859 14.336 15.77 32.973 26.522 52.634 34.304zM592.486 647.066c30.822-30.822 61.542-61.747 92.57-92.467-10.957-82.432-61.542-153.907-123.904-206.643-41.984-35.635-91.853-69.837-149.402-68.506-30.31 31.232-61.44 61.645-91.648 92.979-76.39-75.776-151.757-152.576-228.045-228.557 31.334-31.027 62.054-62.771 93.594-93.594 29.696-29.696 75.264-33.485 114.688-27.443 69.939 12.083 133.632 46.694 192.205 85.606 71.68 46.285 135.475 103.219 196.403 162.611 84.275 86.426 159.642 184.013 206.336 296.141 20.992 52.429 37.683 109.056 30.822 166.195-4.096 21.811-9.626 45.568-25.805 61.85-26.419 27.034-53.35 53.555-79.77 80.486-76.186-76.083-152.064-152.474-228.045-228.659z" />
<glyph unicode="&#xe60c;" d="M746.598 960h28.979c19.968-6.042 36.864-18.432 50.995-33.485 54.17-55.296 109.158-109.67 163.533-164.762 18.637-17.306 29.491-42.701 25.907-68.301-2.253-26.726-23.245-45.466-40.755-63.488-230.707-230.81-459.878-463.258-690.79-693.965h-284.467v279.040c230.4 236.442 460.39 473.19 692.634 707.686 15.155 16.179 32.973 29.798 53.965 37.274zM632.422 727.654c52.122-50.893 102.81-103.322 154.419-154.726 43.725 43.52 88.064 86.426 130.765 130.867-51.2 52.122-103.731 103.117-154.214 155.955-45.261-42.291-89.395-86.118-130.97-132.096zM598.528 695.91c-141.517-145.408-283.546-290.406-425.267-435.814 50.79-50.074 99.942-101.786 150.323-152.269 144.896 142.746 287.13 288.154 430.592 432.23-51.814 52.019-103.014 104.653-155.648 155.853zM92.16 177.869c0-49.664-0.205-99.328 0.307-149.094 51.2 0.512 102.4-0.205 153.6-0.307 15.36 15.36 30.72 30.618 45.978 46.080-50.381 50.893-100.762 101.683-151.245 152.371-16.179-16.384-32.461-32.666-48.64-49.050z" />
<glyph unicode="&#xe60d;" d="M520.090 960h22.835c24.576-7.475 43.622-26.419 52.122-50.483 29.286-73.933 56.422-148.787 85.402-222.925 6.758-19.558 24.166-37.171 46.285-35.43 85.606-1.638 171.315 0.717 256.922-0.717 31.437 0.512 66.765-16.998 73.318-50.176 6.861-28.365-11.571-53.862-31.846-71.475-68.096-61.747-136.397-123.392-204.083-185.446-16.384-14.131-28.365-36.045-19.046-57.754 23.859-83.763 50.995-166.707 74.547-250.675 9.114-28.57 2.97-64.717-24.166-81.408-24.474-16.282-56.832-8.602-79.36 7.475-71.168 48.64-140.595 99.738-211.661 148.378-16.794 12.8-41.165 13.005-57.856 0.102-70.963-48.845-140.288-99.84-211.456-148.275-24.371-17.715-61.645-24.269-85.709-2.662-22.733 17.715-25.498 50.176-17.715 76.083 23.654 83.968 50.483 167.014 74.342 250.982 9.216 21.504-1.946 44.134-18.944 57.856-67.891 61.85-136.090 123.494-204.186 185.242-17.818 15.974-36.352 36.454-32.973 62.464 0.819 37.683 40.038 60.518 74.445 59.392 85.606 1.331 171.315-1.024 256.922 0.614 22.323-1.946 40.038 15.462 46.387 35.533 28.774 74.138 56.115 148.89 85.299 222.925 7.987 23.757 26.931 41.574 50.176 50.381zM528.691 794.829c-20.89-50.176-38.81-101.683-59.597-151.962-19.968-51.712-77.005-81.408-130.765-80.077-61.338-0.307-122.573-0.205-183.91 0.205 53.248-53.248 108.134-104.653 162.099-157.184 38.195-35.123 53.043-92.365 38.81-142.029-17.306-60.211-35.942-120.013-53.35-180.122 49.971 35.84 100.25 71.27 150.938 106.291 46.285 32.666 112.947 32.666 159.232-0.102 50.483-35.123 100.762-70.656 150.938-106.291-17.51 60.211-36.147 120.013-53.453 180.224-14.234 49.664 0.819 106.701 38.912 141.926 53.76 52.531 108.749 103.936 161.894 157.184-61.338-0.205-122.573-0.41-183.808-0.102-53.862-1.229-110.182 28.979-130.765 80.282-20.89 50.176-38.707 101.683-59.597 151.859-1.946 0-5.734 0-7.578-0.102z" horiz-adv-x="1065" />
<glyph unicode="&#xe60e;" d="M398.924 960h181.706c102.4-9.586 206.107-20.044 303.278-54.686 38.999-12.854 74.512-38.346 93.903-75.166 1.089-40.524-3.486-85.842-35.077-115.037-95.21-103.271-192.163-205.236-288.899-307.2-4.357-54.032 17.43-119.83-27.016-162.097-88.674-103.707-181.052-204.146-267.547-309.814h-32.463c0 157.304 0.218 314.608-0.218 471.694-86.495 89.981-170.594 182.141-257.307 272.123-28.106 31.591-63.837 62.529-64.926 108.283-17.212 53.379 34.424 93.685 77.998 111.551 100.657 39.653 209.593 49.893 316.569 60.351zM391.517 913.811c-102.836-8.279-208.504-17.212-303.714-59.915-22.005-11.765-57.083-32.899-39.435-63.183 38.346-40.96 96.735-51.418 148.807-64.708 192.817-37.038 393.26-37.038 586.294 0 52.071 13.29 110.461 23.748 148.589 64.708 18.519 36.167-27.016 57.083-52.507 69.501-155.343 56.647-324.63 59.697-488.034 53.597zM93.685 713.804c97.607-89.328 179.309-194.342 276.262-284.541 1.307-137.042-0.218-274.301 0.654-411.343 81.484 88.892 157.957 181.923 239.224 271.033 0 46.843 0 93.685 0.871 140.31 96.517 90.199 178.437 195.431 276.262 284.541-128.763-51.418-270.597-57.518-407.639-59.043-129.852 3.050-263.843 9.804-385.634 59.043z" horiz-adv-x="980" />
</font></defs></svg>