<?xml version="1.0" encoding="UTF-8" ?>
<!DOCTYPE svg PUBLIC "-//W3C//DTD SVG 1.1//EN" "http://www.w3.org/Graphics/SVG/1.1/DTD/svg11.dtd">
<svg width="113pt" height="100pt" viewBox="0 0 113 100" version="1.1" xmlns="http://www.w3.org/2000/svg">
<g id="#000000ff">
<path fill="#000000" opacity="1.00" d=" M 59.49 5.50 C 61.30 3.64 63.16 1.83 65.02 0.02 C 81.04 16.66 97.01 33.34 113.00 50.01 L 113.00 51.06 L 112.99 50.02 C 96.98 66.66 81.04 83.36 65.02 99.98 C 63.16 98.17 61.31 96.36 59.49 94.51 C 72.56 81.60 85.62 68.68 98.66 55.74 C 65.78 55.73 32.89 55.73 0.00 55.73 L 0.00 46.96 C 32.92 46.95 65.84 46.98 98.76 46.95 C 85.66 33.14 72.61 19.29 59.49 5.50 Z" />
</g>
</svg>
