<?xml version="1.0" encoding="UTF-8" ?>
<!DOCTYPE svg PUBLIC "-//W3C//DTD SVG 1.1//EN" "http://www.w3.org/Graphics/SVG/1.1/DTD/svg11.dtd">
<svg width="100pt" height="75pt" viewBox="0 0 100 75" version="1.1" xmlns="http://www.w3.org/2000/svg">
<g id="#000000ff">
<path fill="#000000" opacity="1.00" d=" M 87.47 0.00 L 87.47 0.00 C 91.63 4.17 95.74 8.40 100.00 12.46 L 100.00 12.48 C 79.15 33.29 58.27 54.07 37.54 75.00 L 37.52 75.00 C 25.04 62.49 12.60 49.93 0.00 37.54 L 0.00 37.53 C 4.24 33.42 8.29 29.11 12.59 25.08 C 20.74 33.46 29.16 41.57 37.30 49.95 C 38.02 49.47 38.68 48.92 39.29 48.31 C 55.30 32.16 71.51 16.20 87.47 0.00 Z" />
</g>
</svg>
